<?xml version="1.0" encoding="UTF-8"?>
<svg width="155px" height="159px" viewBox="0 0 155 159" version="1.1" xmlns="http://www.w3.org/2000/svg" xmlns:xlink="http://www.w3.org/1999/xlink">
    <!-- Generator: Sketch 52.1 (67048) - http://www.bohemiancoding.com/sketch -->
    <title>ico-social</title>
    <desc>Created with Sketch.</desc>
    <defs>
        <polygon id="path-1" points="1.05210811 0.676289156 137.024865 0.676289156 137.024865 136.215351 1.05210811 136.215351"></polygon>
        <polygon id="path-3" points="0 158.799568 154.322162 158.799568 154.322162 -0.000432432432 0 -0.000432432432"></polygon>
    </defs>
    <g id="Page-1" stroke="none" stroke-width="1" fill="none" fill-rule="evenodd">
        <g id="Desktop-HD" transform="translate(-222.000000, -2031.000000)">
            <g id="Icon-Box" transform="translate(100.000000, 1221.000000)">
                <g id="Box-7" transform="translate(119.000000, 810.000000)">
                    <g id="ico-social" transform="translate(3.000000, 0.000000)">
                        <path d="M96.3820541,82.2434595 C95.115027,82.2434595 94.0858378,83.2748108 94.0858378,84.5418378 C94.0858378,85.8067027 95.115027,86.8380541 96.3820541,86.8380541 C97.6490811,86.8380541 98.6782703,85.8067027 98.6782703,84.5418378 C98.6782703,83.2748108 97.6490811,82.2434595 96.3820541,82.2434595" id="Fill-1" fill="#666666"></path>
                        <g id="Group-5" transform="translate(17.297297, 22.583351)">
                            <mask id="mask-2" fill="white">
                                <use xlink:href="#path-1"></use>
                            </mask>
                            <g id="Clip-4"></g>
                            <path d="M133.594811,35.2596757 C132.260757,38.4423784 126.909405,41.9083243 121.912649,42.8294054 C120.126703,43.1623784 116.844541,43.4153514 114.944,41.424 L114.053189,40.4877838 L113.287784,41.5321081 C109.555892,46.6477838 103.668324,49.9515676 98.3580541,51.3072432 C101.296432,49.2012973 104.472649,46.0985946 104.959135,42.3191351 L105.07373,41.424 L104.213189,41.1515676 C103.562378,40.944 102.915892,40.7083243 102.271568,40.4402162 C98.4185946,38.8250811 95.1061622,36.2023784 92.944,33.0521081 L92.7256216,32.7321081 L92.3494054,32.6261622 C91.8067027,32.4704865 91.2661622,32.2867027 90.7299459,32.0618378 C87.5126486,30.7126486 84.9764324,28.2888649 83.5883243,25.2337297 C82.2153514,22.2067027 82.1375135,18.9202162 83.3699459,15.9818378 C85.2142703,11.5753514 89.6272432,8.864 94.5807568,8.864 C95.3980541,8.864 96.2304865,8.93751351 97.0672432,9.08886486 L97.7807568,9.21859459 L98.1699459,8.6067027 C101.493189,3.41318919 108.176432,1.43481081 114.044541,3.89102703 C119.199135,6.05102703 122.43373,11.1450811 122.098595,16.5656216 L122.038054,17.5083243 L122.963459,17.6921081 C123.947243,17.891027 124.909405,18.1850811 125.824,18.5656216 C129.573189,20.1375135 132.293189,22.3364324 133.69427,24.9267027 C135.274811,27.8521081 135.242378,31.3288649 133.594811,35.2596757 Z M52.3753514,87.1904865 C53.4542703,87.8412973 54.5764324,88.4250811 55.7483243,88.9115676 C57.9364324,89.8196757 60.3364324,90.2802162 62.8834595,90.2802162 C68.0056216,90.2802162 73.3526486,88.3645405 77.6942703,85.1904865 L94.2975135,101.79373 C86.6412973,108.870486 76.7364324,112.75373 66.2845405,112.75373 C55.6964324,112.75373 45.6985946,108.786162 38.0099459,101.555892 L52.3753514,87.1904865 Z M58.6304865,66.1223784 C55.1385946,65.8348108 51.1731892,64.5418378 47.2834595,62.3688649 L44.9288649,61.0521081 L45.7223784,63.6294054 C46.6477838,66.6391351 47.5861622,68.4899459 48.2304865,69.6012973 C47.0456216,69.5645405 45.8304865,69.2445405 44.5461622,68.9094054 C43.9321081,68.7472432 43.3180541,68.5872432 42.7018378,68.4553514 L41.3396757,68.4294054 L41.2531892,69.4153514 C41.2229189,69.756973 41.2077838,70.1007568 41.2077838,70.4467027 C41.2077838,75.7656216 44.7321081,81.5667027 49.9991351,85.5861622 L36.0272432,99.5580541 C28.8899459,91.8867027 24.9742703,81.9472432 24.9742703,71.4412973 C24.9742703,60.9894054 28.8596757,51.0845405 35.9364324,43.4283243 L58.6304865,66.1223784 Z M81.8412973,53.7418378 C80.4077838,53.0131892 78.7991351,52.6023784 77.0888649,52.6023784 C72.464,52.6023784 70.0704865,55.8867027 67.756973,59.0607568 C66.5461622,60.7191351 65.2985946,62.4315676 63.7375135,63.6488649 C62.3385946,63.5775135 62.1115676,63.3267027 61.5321081,62.6823784 C61.1472432,62.2542703 60.6175135,61.6683243 59.6877838,61.0196757 L57.6748108,59.6142703 L57.9148108,61.4283243 L37.9061622,41.4218378 C45.6077838,34.1331892 55.6423784,30.1288649 66.2845405,30.1288649 C76.7904865,30.1288649 86.7299459,34.0467027 94.4012973,41.184 L81.8412973,53.7418378 Z M85.7029189,63.8131892 C85.7245405,64.1526486 85.7396757,64.4964324 85.7396757,64.8553514 C85.7396757,66.7515676 85.411027,69.0585946 84.8121081,71.3548108 C84.0488649,74.3018378 82.6499459,77.0412973 80.6521081,79.4975135 C76.3926486,84.7342703 69.4175135,88.1180541 62.8834595,88.1180541 C60.6218378,88.1180541 58.5007568,87.7137297 56.5764324,86.9158919 C49.2034595,83.8521081 43.6056216,77.0002162 43.3742703,70.8380541 C43.584,70.8899459 43.7915676,70.9461622 43.9991351,71.0002162 C45.4348108,71.3764324 46.9202162,71.7677838 48.4531892,71.7677838 L49.0477838,71.7721081 C49.8412973,71.7937297 50.5223784,71.7937297 50.9050811,71.1234595 C51.2856216,70.4553514 50.9202162,69.8629189 50.5331892,69.2380541 C50.1418378,68.6045405 49.4434595,67.4737297 48.6650811,65.5018378 C51.7548108,66.9483243 56.2153514,68.5504865 60.6131892,68.3537297 L62.1742703,68.2845405 L61.5623784,66.8488649 C61.3029189,66.2499459 61.0802162,65.6445405 60.8834595,65.036973 C61.5385946,65.5018378 62.4034595,65.7785946 64.051027,65.824 L64.4164324,65.8348108 L64.7126486,65.6207568 C66.691027,64.1937297 68.1223784,62.2326486 69.5018378,60.3342703 C71.6812973,57.3461622 73.5623784,54.7645405 77.0888649,54.7645405 C80.5634595,54.7645405 83.5515676,56.8207568 84.8921081,60.131027 L85.0434595,60.5072432 L87.8975135,61.9580541 L85.6531892,63.0975135 L85.7029189,63.8131892 Z M92.4250811,54.1721081 L93.2856216,54.1677838 C96.0575135,54.156973 99.3915676,53.4607568 102.738595,52.1115676 C105.880216,58.0056216 107.599135,64.5850811 107.599135,71.4412973 C107.599135,82.0834595 103.596973,92.1180541 96.3083243,99.8196757 L79.8845405,83.4002162 C80.7580541,82.6023784 81.5904865,81.7677838 82.3277838,80.8618378 C84.5223784,78.1634595 86.064,75.1472432 86.9072432,71.8996757 C87.5494054,69.4304865 87.9018378,66.9288649 87.9018378,64.8553514 C87.9018378,64.6975135 87.8996757,64.5396757 87.8953514,64.384 L92.6694054,61.9580541 L86.7342703,58.9418378 C86.1115676,57.5429189 85.2380541,56.3472432 84.1872432,55.3742703 L96.396973,43.1645405 C97.6294054,44.476973 98.7234595,45.8845405 99.756973,47.3267027 C97.196973,49.8456216 93.8412973,51.6034595 92.8812973,52.076973 L92.0337297,52.4964324 L92.4250811,54.1721081 Z M122.466162,61.2164324 C119.605622,62.1007568 117.510486,64.7342703 117.510486,67.8802162 C117.510486,71.3180541 120.001297,74.1699459 123.268324,74.7602162 C123.155892,76.9094054 122.969946,79.0477838 122.611027,81.1450811 C118.262919,106.57427 97.6553514,125.519135 72.4791351,128.221838 C71.9926486,124.829405 69.0975135,122.206703 65.5753514,122.206703 C62.1137297,122.206703 59.2531892,124.732108 58.6867027,128.03373 C31.8434595,124.444541 10.8726486,102.182919 9.28778378,74.7623784 C12.5612973,74.1785946 15.0629189,71.3223784 15.0629189,67.8802162 C15.0629189,64.7342703 12.9634595,62.0964324 10.1029189,61.2164324 C14.5007568,37.0002162 34.1829189,18.0812973 58.7753514,14.8337297 C59.5126486,17.9148108 62.2715676,20.2175135 65.5753514,20.2175135 C68.944,20.2175135 71.7591351,17.8283243 72.4272432,14.6564324 C75.3504865,14.9742703 78.1872432,15.5537297 80.9634595,16.2953514 C79.9515676,19.4867027 80.1699459,22.931027 81.6207568,26.1267027 C83.2337297,29.6791351 86.1699459,32.4964324 89.8931892,34.0553514 C90.3883243,34.2629189 90.8856216,34.4423784 91.3850811,34.5937297 C93.7785946,37.9385946 97.3331892,40.7126486 101.436973,42.4358919 C101.836973,42.6023784 102.239135,42.7558919 102.641297,42.9007568 C102.368865,43.8802162 101.852108,44.8099459 101.205622,45.6812973 C100.055351,44.1158919 98.8380541,42.5937297 97.4650811,41.1796757 L97.4867027,41.1580541 L97.0283243,40.7083243 L96.4164324,40.0899459 L96.3926486,40.1137297 C88.2477838,32.2867027 77.5818378,27.9667027 66.2845405,27.9667027 C54.8467027,27.9667027 44.0899459,32.3753514 35.9212973,40.3580541 L35.904,40.3407568 L35.6272432,40.6218378 C35.6207568,40.6304865 35.6142703,40.636973 35.6056216,40.6456216 L34.8358919,41.4088649 L34.864,41.436973 C27.0996757,49.5645405 22.8121081,60.1958919 22.8121081,71.4412973 C22.8121081,82.7407568 27.1321081,93.4067027 34.9591351,101.547243 L34.9331892,101.573189 L35.6315676,102.265081 L36.0012973,102.641297 L36.0229189,102.621838 C44.1807568,110.541838 54.9007568,114.915892 66.2845405,114.915892 C77.5277838,114.915892 88.1612973,110.628324 96.291027,102.861838 L96.3212973,102.892108 L97.0845405,102.124541 C97.1018378,102.107243 97.1148108,102.089946 97.1299459,102.074811 L97.3872432,101.824 L97.3699459,101.808865 C105.352649,93.6380541 109.761297,82.8791351 109.761297,71.4412973 C109.761297,64.2780541 107.975351,57.4045405 104.714811,51.2402162 C108.226162,49.5277838 111.642378,47.0672432 114.325622,43.7331892 C115.019676,44.2283243 115.849946,44.556973 116.738595,44.8077838 C119.428324,49.8823784 121.402378,55.3850811 122.466162,61.2164324 Z M129.356973,67.8802162 C129.356973,70.5504865 127.184,72.7234595 124.51373,72.7234595 C121.843459,72.7234595 119.672649,70.5504865 119.672649,67.8802162 C119.672649,65.2121081 121.843459,63.0391351 124.51373,63.0391351 C127.184,63.0391351 129.356973,65.2121081 129.356973,67.8802162 Z M65.5753514,134.053189 C62.9050811,134.053189 60.7321081,131.882378 60.7321081,129.212108 C60.7321081,126.541838 62.9050811,124.368865 65.5753514,124.368865 C68.2434595,124.368865 70.4164324,126.541838 70.4164324,129.212108 C70.4164324,131.882378 68.2434595,134.053189 65.5753514,134.053189 Z M3.21427027,67.8802162 C3.21427027,65.2121081 5.38724324,63.0391351 8.05751351,63.0391351 C10.7277838,63.0391351 12.9007568,65.2121081 12.9007568,67.8802162 C12.9007568,70.5504865 10.7277838,72.7234595 8.05751351,72.7234595 C5.38724324,72.7234595 3.21427027,70.5504865 3.21427027,67.8802162 Z M65.5753514,8.37102703 C68.2434595,8.37102703 70.4164324,10.544 70.4164324,13.2142703 C70.4164324,15.8845405 68.2434595,18.0553514 65.5753514,18.0553514 C62.9050811,18.0553514 60.7321081,15.8845405 60.7321081,13.2142703 C60.7321081,10.544 62.9050811,8.37102703 65.5753514,8.37102703 Z M135.596973,23.8975135 C133.960216,20.8683243 130.868324,18.3364324 126.660757,16.5721081 C125.891027,16.2499459 125.095351,15.984 124.282378,15.7764324 C124.275892,9.78940541 120.589405,4.28886486 114.881297,1.89751351 C108.258595,-0.880864865 100.755892,1.21210811 96.7494054,6.84886486 C90.4467027,5.984 84.531027,8.96778378 81.8326486,14.2780541 C78.8077838,13.4521081 75.7007568,12.8337297 72.5072432,12.4921081 C72.1396757,8.97427027 69.1904865,6.20886486 65.5753514,6.20886486 C61.8975135,6.20886486 58.9050811,9.06724324 58.624,12.6715676 C33.0196757,15.9948108 12.5180541,35.6812973 7.96454054,60.8856216 C4.14616216,60.9375135 1.05210811,64.0488649 1.05210811,67.8802162 C1.05210811,71.4153514 3.69210811,74.316973 7.09967568,74.7883243 C8.70183784,103.391568 30.6456216,126.628324 58.6737297,130.239135 C59.1753514,133.612108 62.064,136.215351 65.5753514,136.215351 C69.036973,136.215351 71.8996757,133.687784 72.4618378,130.384 C98.704,127.679135 120.215351,107.988324 124.742919,81.5104865 C125.121297,79.3050811 125.31373,77.0542703 125.430486,74.7926486 C128.857514,74.3385946 131.519135,71.4304865 131.519135,67.8802162 C131.519135,64.051027 128.427243,60.9375135 124.606703,60.8856216 C123.603459,55.3418378 121.811027,50.0791351 119.378595,45.1796757 C120.306162,45.196973 121.268324,45.1472432 122.304,44.956973 C128.022919,43.9018378 133.984,39.9277838 135.588324,36.0964324 C137.501838,31.5299459 137.506162,27.4261622 135.596973,23.8975135 Z" id="Fill-3" fill="#666666" mask="url(#mask-2)"></path>
                        </g>
                        <mask id="mask-4" fill="white">
                            <use xlink:href="#path-3"></use>
                        </mask>
                        <g id="Clip-7"></g>
                        <polygon id="Fill-6" fill="#666666" mask="url(#mask-4)" points="114.605405 53.2147027 116.382703 53.2147027 116.382703 47.0784865 114.605405 47.0784865"></polygon>
                        <polygon id="Fill-8" fill="#666666" mask="url(#mask-4)" points="118.16 53.2147027 119.937297 53.2147027 119.937297 44.9163243 118.16 44.9163243"></polygon>
                        <polygon id="Fill-9" fill="#666666" mask="url(#mask-4)" points="121.712432 53.2147027 123.48973 53.2147027 123.48973 42.7541622 121.712432 42.7541622"></polygon>
                        <polygon id="Fill-10" fill="#666666" mask="url(#mask-4)" points="125.264865 53.2147027 127.042162 53.2147027 127.042162 40.592 125.264865 40.592"></polygon>
                        <polygon id="Fill-11" fill="#666666" mask="url(#mask-4)" points="128.817297 53.2147027 130.594595 53.2147027 130.594595 38.4298378 128.817297 38.4298378"></polygon>
                        <polygon id="Fill-12" fill="#666666" mask="url(#mask-4)" points="132.36973 53.2147027 134.147027 53.2147027 134.147027 36.2676757 132.36973 36.2676757"></polygon>
                        <path d="M30.4064865,39.3115676 L30.9837838,35.651027 L34.3264865,35.651027 L33.3513514,39.3115676 L30.4064865,39.3115676 Z M32.252973,43.4304865 L29.7578378,43.4304865 L30.2637838,40.2283243 L33.1091892,40.2283243 L32.252973,43.4304865 Z M25.3405405,39.3115676 L24.7891892,35.651027 L30.0605405,35.651027 L29.4832432,39.3115676 L25.3405405,39.3115676 Z M28.8432432,43.4304865 L25.9567568,43.4304865 L25.4767568,40.2283243 L29.3362162,40.2283243 L28.8410811,43.3612973 C28.8367568,43.3850811 28.8432432,43.4067027 28.8432432,43.4304865 Z M20.3827027,43.4304865 L19.5827027,40.2283243 L24.5535135,40.2283243 L25.0313514,43.4304865 L20.3827027,43.4304865 Z M13.9740541,43.4304865 L13.1762162,40.2283243 L18.64,40.2283243 L19.44,43.4304865 L13.9740541,43.4304865 Z M7.97405405,43.4304865 L6.85189189,40.2283243 L12.2313514,40.2283243 L13.0313514,43.4304865 L7.97405405,43.4304865 Z M6.53405405,39.3115676 L5.24972973,35.651027 L11.0875676,35.651027 L12.0021622,39.3115676 L6.53405405,39.3115676 Z M3.64972973,31.0737297 L9.94378378,31.0737297 L10.8583784,34.7342703 L4.92972973,34.7342703 L3.64972973,31.0737297 Z M2.20756757,26.9526486 L8.91243243,26.9526486 L9.71243243,30.156973 L3.33189189,30.156973 L2.20756757,26.9526486 Z M15.3210811,26.9526486 L16.1210811,30.156973 L10.6572973,30.156973 L9.85513514,26.9526486 L15.3210811,26.9526486 Z M22.5621622,26.9526486 L23.0421622,30.156973 L17.0637838,30.156973 L16.2616216,26.9526486 L22.5621622,26.9526486 Z M11.8010811,34.7342703 L10.8864865,31.0737297 L16.3502703,31.0737297 L17.267027,34.7342703 L11.8010811,34.7342703 Z M17.4940541,35.651027 L18.4086486,39.3115676 L12.947027,39.3115676 L12.0324324,35.651027 L17.4940541,35.651027 Z M23.7275676,34.7342703 L18.2097297,34.7342703 L17.292973,31.0737297 L23.1827027,31.0737297 L23.7275676,34.7342703 Z M24.4151351,39.3115676 L19.3556757,39.3115676 L18.4367568,35.651027 L23.8637838,35.651027 L24.4151351,39.3115676 Z M24.1037838,31.0737297 L30.7805405,31.0737297 L30.2032432,34.7342703 L24.6551351,34.7342703 L24.1037838,31.0737297 Z M31.4356757,26.9526486 L30.9254054,30.156973 L23.9654054,30.156973 L23.4875676,26.9526486 L31.4356757,26.9526486 Z M35.5481081,31.0737297 L34.572973,34.7342703 L31.132973,34.7342703 L31.7081081,31.0737297 L35.5481081,31.0737297 Z M32.3589189,26.9526486 L36.6486486,26.9526486 L35.7924324,30.156973 L31.852973,30.156973 L32.3589189,26.9526486 Z M40.9837838,17.8002162 L47.3794595,17.8002162 C47.8810811,17.8002162 48.2918919,17.3894054 48.2918919,16.8834595 C48.2918919,16.3796757 47.8810811,15.971027 47.3794595,15.971027 L39.5740541,15.971027 L37.1351351,25.1234595 L0.914594595,25.1234595 L0.914594595,25.1321081 C0.815135135,25.1321081 0.713513514,25.1407568 0.614054054,25.1731892 C0.138378378,25.3418378 -0.114594595,25.8629189 0.0497297297,26.3407568 L6.67459459,45.2618378 L33.6583784,45.2618378 L40.9837838,17.8002162 Z" id="Fill-13" fill="#666666" mask="url(#mask-4)"></path>
                        <path d="M11.4454054,52.5844324 C10.1827027,52.5844324 9.15351351,51.5574054 9.15351351,50.2968649 C9.15351351,49.0341622 10.1827027,48.0071351 11.4454054,48.0071351 C12.7037838,48.0071351 13.732973,49.0341622 13.732973,50.2968649 C13.732973,51.5574054 12.7037838,52.5844324 11.4454054,52.5844324 M28.8378378,48.0071351 C30.1005405,48.0071351 31.1275676,49.0341622 31.1275676,50.2968649 C31.1275676,51.5574054 30.1005405,52.5844324 28.8378378,52.5844324 C27.572973,52.5844324 26.5481081,51.5574054 26.5481081,50.2968649 C26.5481081,49.0341622 27.572973,48.0071351 28.8378378,48.0071351 M28.8378378,54.4136216 C31.1102703,54.4136216 32.9545946,52.5736216 32.9545946,50.2968649 C32.9545946,48.0201081 31.1102703,46.1779459 28.8378378,46.1779459 C26.8789189,46.1779459 25.2443243,47.5487568 24.827027,49.3801081 L15.4540541,49.3801081 C15.0367568,47.5487568 13.4043243,46.1779459 11.4454054,46.1779459 C9.16864865,46.1779459 7.32648649,48.0201081 7.32648649,50.2968649 C7.32648649,52.5736216 9.16864865,54.4136216 11.4454054,54.4136216 C13.72,54.4136216 15.5621622,52.5736216 15.5621622,50.2968649 L24.7167568,50.2968649 C24.7167568,52.5736216 26.5632432,54.4136216 28.8378378,54.4136216" id="Fill-14" fill="#666666" mask="url(#mask-4)"></path>
                        <path d="M20.2376216,2.16216216 C25.2668108,2.16216216 29.3576216,6.25297297 29.3576216,11.2821622 C29.3576216,16.3113514 25.2668108,20.4021622 20.2376216,20.4021622 C15.2084324,20.4021622 11.1176216,16.3113514 11.1176216,11.2821622 C11.1176216,6.25297297 15.2084324,2.16216216 20.2376216,2.16216216 M20.2376216,22.5643243 C26.4581622,22.5643243 31.5197838,17.5027027 31.5197838,11.2821622 C31.5197838,5.06162162 26.4581622,0 20.2376216,0 C14.0170811,0 8.95545946,5.06162162 8.95545946,11.2821622 C8.95545946,17.5027027 14.0170811,22.5643243 20.2376216,22.5643243" id="Fill-15" fill="#666666" mask="url(#mask-4)"></path>
                        <path d="M17.9063784,7.84302703 C17.9063784,6.87005405 18.7020541,6.07437838 19.6771892,6.07437838 L21.2944865,6.07437838 C22.2761081,6.07437838 23.0696216,6.87005405 23.0696216,7.84302703 L23.0696216,8.78572973 L17.9063784,8.78572973 L17.9063784,7.84302703 Z M20.7798919,11.8884324 L20.7798919,13.1943784 L20.1939459,13.1943784 L20.1939459,11.8884324 C19.9842162,11.7824865 19.8436757,11.5684324 19.8436757,11.3154595 C19.8436757,10.9587027 20.1312432,10.6711351 20.488,10.6711351 C20.8425946,10.6711351 21.1344865,10.9587027 21.1344865,11.3154595 C21.1344865,11.5684324 20.9896216,11.7824865 20.7798919,11.8884324 Z M17.3593514,15.3414054 L23.6144865,15.3414054 C24.2998919,15.3414054 24.8577297,14.7835676 24.8577297,14.0981622 L24.8577297,10.028973 C24.8577297,9.36086486 24.3301622,8.81816216 23.6707027,8.78789189 L23.6707027,7.84302703 C23.6707027,6.53708108 22.6069189,5.4732973 21.2944865,5.4732973 L19.6771892,5.4732973 C18.3690811,5.4732973 17.3052973,6.53708108 17.3052973,7.84302703 L17.3052973,8.78789189 C16.6458378,8.81816216 16.1204324,9.36086486 16.1204324,10.028973 L16.1204324,14.0981622 C16.1204324,14.7835676 16.6761081,15.3414054 17.3593514,15.3414054 Z" id="Fill-16" fill="#666666" mask="url(#mask-4)"></path>
                    </g>
                </g>
            </g>
        </g>
    </g>
</svg>