<?xml version="1.0" encoding="UTF-8"?>
<svg width="54px" height="31px" viewBox="0 0 54 31" version="1.1" xmlns="http://www.w3.org/2000/svg" xmlns:xlink="http://www.w3.org/1999/xlink">
    <!-- Generator: Sketch 52.1 (67048) - http://www.bohemiancoding.com/sketch -->
    <title>Group 11</title>
    <desc>Created with Sketch.</desc>
    <defs>
        <polygon id="path-1" points="0 29.7371004 54.0005034 29.7371004 54.0005034 -0.000172610129 0 -0.000172610129"></polygon>
    </defs>
    <g id="Page-1" stroke="none" stroke-width="1" fill="none" fill-rule="evenodd">
        <g id="Desktop-HD" transform="translate(-149.000000, -5189.000000)">
            <g id="2" transform="translate(0.000000, 5103.000000)">
                <g id="Group" transform="translate(149.000000, 86.839623)">
                    <g id="Group-11">
                        <path d="M7.59271681,18.9618556 C5.41552772,18.9618556 3.64339706,17.1897249 3.64339706,15.0113851 C3.64339706,12.8336206 5.41552772,11.06149 7.59271681,11.06149 C8.9603644,11.06149 10.1997051,11.7594102 10.9229416,12.8974864 L10.9229416,17.1264345 C10.1997051,18.2639353 8.9603644,18.9618556 7.59271681,18.9618556 Z M10.9229416,5.75367096e-05 L10.9229416,8.19673719 C9.9045418,7.70077075 8.77624693,7.41884088 7.59271681,7.41884088 C3.40692119,7.41884088 0.000172610129,10.8250141 0.000172610129,15.0113851 C0.000172610129,19.1983314 3.40692119,22.6045046 7.59271681,22.6045046 C8.77624693,22.6045046 9.9045418,22.321424 10.9229416,21.8266083 L10.9229416,22.4802254 L14.566166,22.4802254 L14.566166,5.75367096e-05 L10.9229416,5.75367096e-05 Z" id="Fill-1" fill="#1B1E3D"></path>
                        <path d="M24.7531555,18.8887839 C22.5748157,18.8887839 20.8032604,17.1160779 20.8032604,14.9388888 C20.8032604,12.760549 22.5748157,10.9884183 24.7531555,10.9884183 C26.1208031,10.9884183 27.3607192,11.6857633 28.0822295,12.8238394 L28.0822295,17.0533629 C27.3607192,18.1908636 26.1208031,18.8887839 24.7531555,18.8887839 Z M28.0822295,7.46947318 L28.0822295,8.12424093 C27.0644052,7.6282745 25.9366856,7.34634462 24.7531555,7.34634462 C20.5662092,7.34634462 17.160036,10.7519425 17.160036,14.9388888 C17.160036,19.1246844 20.5662092,22.5320084 24.7531555,22.5320084 C25.9366856,22.5320084 27.0644052,22.2506539 28.0822295,21.7535367 L28.0822295,26.0941061 L31.725454,26.0941061 L31.725454,7.46947318 L28.0822295,7.46947318 Z" id="Fill-3" fill="#1B1E3D"></path>
                        <mask id="mask-2" fill="white">
                            <use xlink:href="#path-1"></use>
                        </mask>
                        <g id="Clip-6"></g>
                        <polygon id="Fill-5" fill="#1B1E3D" mask="url(#mask-2)" points="19.3317591 29.7371004 28.0848187 29.7371004 28.0848187 26.0938759 19.3317591 26.0938759"></polygon>
                        <polygon id="Fill-7" fill="#1B1E3D" mask="url(#mask-2)" points="35.3689661 22.5070375 39.0121906 22.5070375 39.0121906 -0.000172610129 35.3689661 -0.000172610129"></polygon>
                        <polygon id="Fill-8" fill="#F2D01E" mask="url(#mask-2)" points="49.2883045 7.37160324 44.7699467 7.37160324 39.0122481 14.9261732 44.7699467 22.4801678 49.2883045 22.4801678 43.5294552 14.9261732"></polygon>
                        <path d="M52.2516752,6.50999101 L52.4242853,6.50999101 C52.6216362,6.50999101 52.7430387,6.40642493 52.7430387,6.24819898 C52.7430387,6.07328738 52.6216362,5.99331136 52.4311897,5.99331136 C52.3397063,5.99331136 52.2787174,5.9996404 52.2516752,6.00769553 L52.2516752,6.50999101 Z M51.9639916,5.80689242 C52.0721606,5.78848067 52.2361402,5.77294576 52.4029967,5.77294576 C52.6337189,5.77294576 52.7884927,5.81149536 52.8937848,5.90125262 C52.9812406,5.97489961 53.0307222,6.08479473 53.0307222,6.22000599 C53.0307222,6.42598741 52.890908,6.56465088 52.7430387,6.61873539 L52.7430387,6.6273659 C52.8558106,6.66821696 52.9248547,6.78041355 52.9657057,6.93288583 C53.0151873,7.13196284 53.0571891,7.31608031 53.0894096,7.37706922 L52.7902188,7.37706922 C52.7666287,7.32988912 52.7298052,7.20100689 52.6843512,7.00135451 C52.6394726,6.79364699 52.5635241,6.72805514 52.397243,6.7234522 L52.2516752,6.7234522 L52.2516752,7.37706922 L51.9639916,7.37706922 L51.9639916,5.80689242 Z" id="Fill-9" fill="#1B1E3D" mask="url(#mask-2)"></path>
                        <path d="M52.485677,5.33785316 C51.7837291,5.33785316 51.2129649,5.90804195 51.2129649,6.60941444 C51.2129649,7.31193767 51.7837291,7.8832772 52.485677,7.8832772 C53.1870494,7.8832772 53.7572382,7.31193767 53.7572382,6.60941444 C53.7572382,5.90804195 53.1870494,5.33785316 52.485677,5.33785316 M52.485677,8.12493138 C51.6502439,8.12493138 50.9707354,7.44484747 50.9707354,6.60941444 C50.9707354,5.77455679 51.6502439,5.09562361 52.485677,5.09562361 C53.3193839,5.09562361 54.0006185,5.77455679 54.0006185,6.60941444 C54.0006185,7.44484747 53.3193839,8.12493138 52.485677,8.12493138" id="Fill-10" fill="#1B1E3D" mask="url(#mask-2)"></path>
                    </g>
                </g>
            </g>
        </g>
    </g>
</svg>