<?xml version="1.0" encoding="UTF-8"?>
<svg width="100px" height="120px" viewBox="0 0 100 120" version="1.1" xmlns="http://www.w3.org/2000/svg" xmlns:xlink="http://www.w3.org/1999/xlink">
    <!-- Generator: Sketch 52.1 (67048) - http://www.bohemiancoding.com/sketch -->
    <title>lg-espacio</title>
    <desc>Created with Sketch.</desc>
    <defs>
        <polygon id="path-1" points="0 119.333333 100 119.333333 100 0.254666667 0 0.254666667"></polygon>
    </defs>
    <g id="Page-1" stroke="none" stroke-width="1" fill="none" fill-rule="evenodd">
        <g id="Desktop-HD" transform="translate(-418.000000, -3872.000000)">
            <g id="Customers" transform="translate(0.000000, 3228.000000)">
                <g id="Logo" transform="translate(89.000000, 380.000000)">
                    <g id="lg-espacio" transform="translate(329.000000, 264.000000)">
                        <path d="M0,0.666933333 L0,20.6669333 L0,40.6662667 L0,60.6669333 L0,80.6669333 L0,100.666267 L20,100.666267 L39.9993333,100.666267 L60,100.666267 L80.0006667,100.666267 L100,100.666267 L100,0.666933333 L0,0.666933333 Z M20,60.6669333 L20,40.6662667 L20,20.6669333 L39.9993333,20.6669333 L60,20.6669333 L80.0006667,20.6669333 L80.0006667,40.6662667 L80.0006667,60.6669333 L80.0006667,80.6669333 L60,80.6669333 L39.9993333,80.6669333 L20,80.6669333 L20,60.6669333 Z" id="Fill-1" fill="#FFFFFF"></path>
                        <polygon id="Fill-2" fill="#FFFFFF" points="27.9874667 48.3903333 27.9874667 49.897 31.6074667 49.897 31.6074667 51.4143333 27.9874667 51.4143333 27.9874667 52.9423333 32.1168 52.9423333 32.1168 54.4596667 26.0581333 54.4596667 26.0581333 46.873 31.9974667 46.873 31.9974667 48.3903333"></polygon>
                        <g id="Group-25" transform="translate(0.000000, 0.412000)">
                            <path d="M39.2700667,47.2198667 L38.5440667,48.7258667 C37.7420667,48.2605333 36.7347333,47.9352 36.1167333,47.9352 C35.6174,47.9352 35.2820667,48.1192 35.2820667,48.4878667 C35.2820667,49.7992 39.2920667,49.0512 39.2920667,51.7932 C39.2920667,53.3112 37.9487333,54.1125333 36.2574,54.1125333 C34.9894,54.1125333 33.6887333,53.6365333 32.7894,52.8985333 L33.5367333,51.4145333 C34.3174,52.0972 35.4874,52.5518667 36.2787333,52.5518667 C36.8854,52.5518667 37.2654,52.3245333 37.2654,51.8912 C37.2654,50.5472 33.2554,51.3485333 33.2554,48.6612 C33.2554,47.2632 34.4580667,46.3745333 36.2787333,46.3745333 C37.3734,46.3745333 38.4900667,46.7105333 39.2700667,47.2198667" id="Fill-3" fill="#FFFFFF"></path>
                            <path d="M42.2726667,50.3953333 L43.5513333,50.3953333 C44.3973333,50.3953333 44.8846667,49.9733333 44.8846667,49.1706667 C44.8846667,48.3793333 44.3973333,47.9786667 43.5513333,47.9786667 L42.2726667,47.9786667 L42.2726667,50.3953333 Z M43.6493333,46.4606667 C45.5893333,46.4606667 46.7053333,47.4146667 46.7053333,49.1053333 C46.7053333,50.8833333 45.5893333,51.9126667 43.6493333,51.9126667 L42.2726667,51.9126667 L42.2726667,54.048 L40.3433333,54.048 L40.3433333,46.4606667 L43.6493333,46.4606667 Z" id="Fill-5" fill="#FFFFFF"></path>
                            <path d="M50.5425333,48.3790667 L49.4365333,51.1857333 L51.6258667,51.1857333 L50.5425333,48.3790667 Z M48.8732,52.6497333 L48.3205333,54.0477333 L46.3365333,54.0477333 L49.6098667,46.4610667 L51.5938667,46.4610667 L54.7905333,54.0477333 L52.7312,54.0477333 L52.1898667,52.6497333 L48.8732,52.6497333 Z" id="Fill-7" fill="#FFFFFF"></path>
                            <path d="M61.9006,47.6746667 L60.7839333,48.9973333 C60.2852667,48.39 59.5486,48.0106667 58.8766,48.0106667 C57.6732667,48.0106667 56.7632667,48.9653333 56.7632667,50.2113333 C56.7632667,51.4793333 57.6732667,52.444 58.8766,52.444 C59.5159333,52.444 60.2526,52.0973333 60.7839333,51.5553333 L61.9119333,52.7473333 C61.0986,53.5813333 59.8952667,54.1346667 58.7792667,54.1346667 C56.4926,54.1346667 54.7906,52.4546667 54.7906,50.2326667 C54.7906,48.0433333 56.5352667,46.396 58.8439333,46.396 C59.9712667,46.396 61.1412667,46.8946667 61.9006,47.6746667" id="Fill-9" fill="#FFFFFF"></path>
                            <mask id="mask-2" fill="white">
                                <use xlink:href="#path-1"></use>
                            </mask>
                            <g id="Clip-12"></g>
                            <polygon id="Fill-11" fill="#FFFFFF" mask="url(#mask-2)" points="62.7893333 54.0473333 64.7186667 54.0473333 64.7186667 46.4606667 62.7893333 46.4606667"></polygon>
                            <path d="M67.7092,50.2544 C67.7092,51.5330667 68.6958667,52.5190667 69.8558667,52.5190667 C71.0258667,52.5190667 71.9585333,51.5330667 71.9585333,50.2544 C71.9585333,48.9757333 71.0258667,48.0110667 69.8558667,48.0110667 C68.6852,48.0110667 67.7092,48.9757333 67.7092,50.2544 M73.9418667,50.2437333 C73.9418667,52.4544 72.1858667,54.1350667 69.8338667,54.1350667 C67.4932,54.1350667 65.7372,52.4657333 65.7372,50.2437333 C65.7372,48.0324 67.4932,46.3957333 69.8338667,46.3957333 C72.1858667,46.3957333 73.9418667,48.0430667 73.9418667,50.2437333" id="Fill-13" fill="#FFFFFF" mask="url(#mask-2)"></path>
                            <polygon id="Fill-14" fill="#FFFFFF" mask="url(#mask-2)" points="6.24793333 117.267733 6.24793333 119.227733 -6.66666667e-05 119.227733 -6.66666667e-05 110.0204 2.34126667 110.0204 2.34126667 117.267733"></polygon>
                            <path d="M11.5239333,112.349133 L10.1819333,115.755133 L12.8392667,115.755133 L11.5239333,112.349133 Z M9.49793333,117.531133 L8.82793333,119.2278 L6.4206,119.2278 L10.3926,110.020467 L12.7999333,110.020467 L16.6799333,119.2278 L14.1806,119.2278 L13.5232667,117.531133 L9.49793333,117.531133 Z" id="Fill-15" fill="#FFFFFF" mask="url(#mask-2)"></path>
                            <path d="M24.6668667,110.940933 L23.7855333,112.7696 C22.8122,112.204267 21.5888667,111.810267 20.8388667,111.810267 C20.2342,111.810267 19.8262,112.0336 19.8262,112.480933 C19.8262,114.0716 24.6935333,113.164267 24.6935333,116.492267 C24.6935333,118.334267 23.0622,119.3076 21.0102,119.3076 C19.4715333,119.3076 17.8922,118.728267 16.8008667,117.834267 L17.7088667,116.032267 C18.6555333,116.860933 20.0762,117.412933 21.0362,117.412933 C21.7728667,117.412933 22.2335333,117.136933 22.2335333,116.610267 C22.2335333,114.980267 17.3668667,115.952933 17.3668667,112.690933 C17.3668667,110.994267 18.8262,109.9156 21.0362,109.9156 C22.3648667,109.9156 23.7202,110.322933 24.6668667,110.940933" id="Fill-16" fill="#FFFFFF" mask="url(#mask-2)"></path>
                            <path d="M33.1401333,112.349133 L31.7981333,115.755133 L34.4554667,115.755133 L33.1401333,112.349133 Z M31.1148,117.531133 L30.4434667,119.2278 L28.0361333,119.2278 L32.0088,110.020467 L34.4161333,110.020467 L38.2961333,119.2278 L35.7968,119.2278 L35.1394667,117.531133 L31.1148,117.531133 Z" id="Fill-17" fill="#FFFFFF" mask="url(#mask-2)"></path>
                            <polygon id="Fill-18" fill="#FFFFFF" mask="url(#mask-2)" points="47.203 119.228067 47.1896667 113.242733 44.9803333 118.3074 43.4543333 118.3074 41.245 113.242733 41.245 119.228067 39.1536667 119.228067 39.1536667 110.0074 41.7176667 110.0074 44.217 115.492067 46.717 110.0074 49.2683333 110.0074 49.2683333 119.228067"></polygon>
                            <path d="M55.3608667,109.218267 L53.6248667,109.218267 L55.0188667,107.008933 L57.0708667,107.732267 L55.3608667,109.218267 Z M53.4668667,111.862267 L53.4668667,113.690267 L57.8602,113.690267 L57.8602,115.532267 L53.4668667,115.532267 L53.4668667,117.386267 L58.4788667,117.386267 L58.4788667,119.228267 L51.1255333,119.228267 L51.1255333,110.020267 L58.3335333,110.020267 L58.3335333,111.862267 L53.4668667,111.862267 Z" id="Fill-19" fill="#FFFFFF" mask="url(#mask-2)"></path>
                            <path d="M64.1095333,114.795067 C65.1228667,114.795067 65.7142,114.281733 65.7142,113.309067 C65.7142,112.349067 65.1228667,111.8624 64.1095333,111.8624 L62.3342,111.8624 L62.3342,114.795067 L64.1095333,114.795067 Z M64.1755333,116.637067 L64.1095333,116.637067 L62.3342,116.637067 L62.3342,119.227733 L59.9928667,119.227733 L59.9928667,110.0204 L64.1095333,110.0204 C66.5428667,110.0204 67.9368667,111.1784 67.9368667,113.229733 C67.9368667,114.637733 67.3455333,115.6504 66.2662,116.189733 L68.2008667,119.227733 L65.5435333,119.227733 L64.1755333,116.637067 Z" id="Fill-20" fill="#FFFFFF" mask="url(#mask-2)"></path>
                            <polygon id="Fill-21" fill="#FFFFFF" mask="url(#mask-2)" points="69.5186667 119.228667 71.86 119.228667 71.86 110.020667 69.5186667 110.020667"></polygon>
                            <path d="M81.7254667,111.493667 L80.3708,113.098333 C79.7654667,112.362333 78.8714667,111.901 78.0554667,111.901 C76.5954667,111.901 75.4901333,113.059 75.4901333,114.571667 C75.4901333,116.110333 76.5954667,117.281667 78.0554667,117.281667 C78.8314667,117.281667 79.7261333,116.861 80.3708,116.202333 L81.7388,117.649667 C80.7521333,118.663 79.2921333,119.333667 77.9368,119.333667 C75.1614667,119.333667 73.0968,117.294333 73.0968,114.597667 C73.0968,111.941 75.2141333,109.941667 78.0168,109.941667 C79.3841333,109.941667 80.8041333,110.547 81.7254667,111.493667" id="Fill-22" fill="#FFFFFF" mask="url(#mask-2)"></path>
                            <path d="M86.8315333,112.349133 L85.4895333,115.755133 L88.1468667,115.755133 L86.8315333,112.349133 Z M84.8055333,117.531133 L84.1342,119.2278 L81.7275333,119.2278 L85.7002,110.020467 L88.1068667,110.020467 L91.9868667,119.2278 L89.4882,119.2278 L88.8308667,117.531133 L84.8055333,117.531133 Z" id="Fill-23" fill="#FFFFFF" mask="url(#mask-2)"></path>
                            <path d="M99.9741333,110.940933 L99.0921333,112.7696 C98.1188,112.204267 96.8961333,111.810267 96.1461333,111.810267 C95.5414667,111.810267 95.1328,112.0336 95.1328,112.480933 C95.1328,114.0716 100.000133,113.164267 100.000133,116.492267 C100.000133,118.334267 98.3694667,119.3076 96.3174667,119.3076 C94.7781333,119.3076 93.1994667,118.728267 92.1074667,117.834267 L93.0154667,116.032267 C93.9621333,116.860933 95.3828,117.412933 96.3434667,117.412933 C97.0794667,117.412933 97.5408,117.136933 97.5408,116.610267 C97.5408,114.980267 92.6741333,115.952933 92.6741333,112.690933 C92.6741333,110.994267 94.1334667,109.9156 96.3434667,109.9156 C97.6721333,109.9156 99.0268,110.322933 99.9741333,110.940933" id="Fill-24" fill="#FFFFFF" mask="url(#mask-2)"></path>
                        </g>
                    </g>
                </g>
            </g>
        </g>
    </g>
</svg>